<?xml version="1.0" standalone="no"?>
<!DOCTYPE svg PUBLIC "-//W3C//DTD SVG 1.1//EN" "http://www.w3.org/Graphics/SVG/1.1/DTD/svg11.dtd" >
<svg xmlns="http://www.w3.org/2000/svg">
<metadata>Generated by IcoMoon</metadata>
<defs>
<font id="icomoon" horiz-adv-x="1024">
<font-face units-per-em="1024" ascent="960" descent="-64" />
<missing-glyph horiz-adv-x="1024" />
<glyph unicode="&#x20;" horiz-adv-x="512" d="" />
<glyph unicode="&#xe900;" glyph-name="user" horiz-adv-x="1009" d="M504.549 938.711c-270.37 0-491.775-219.277-491.775-489.647s219.277-491.775 491.775-491.775c270.37 0 491.775 219.277 491.775 491.775-2.129 270.37-221.405 489.647-491.775 489.647v0zM370.428 540.607v0c4.258 4.258 6.387 8.516 6.387 12.773-10.644 59.609-4.258 85.156-2.129 91.543 17.031 53.222 70.254 78.769 83.027 80.898 14.902 4.258 57.48 6.387 108.574-12.773 38.32-14.902 57.48-36.191 59.609-40.449 31.933-36.191 23.418-91.543 14.902-119.218 0-4.258 0-6.387 2.129-10.644l2.129-2.129c2.129-2.129 4.258-14.902-2.129-40.449-2.129-8.516-4.258-14.902-8.516-19.16-2.129-2.129-2.129-4.258-2.129-6.387-10.644-63.867-68.125-134.121-127.734-134.121-51.094 0-108.574 65.996-119.218 134.121 0 2.129-2.129 4.258-4.258 6.387-4.258 4.258-6.387 10.644-8.516 21.289-6.387 19.16-6.387 34.062-2.129 38.32v0zM255.468 268.108c2.129 2.129 14.902 17.031 38.32 25.547 87.285 25.547 123.476 63.867 123.476 63.867l2.129-2.129c25.547-25.547 55.351-38.32 80.898-38.32 27.676 0 55.351 12.773 83.027 34.062l2.129 2.129c0 0 57.48-38.32 102.187-51.094s61.738-31.933 61.738-34.062c34.062-46.836 44.707-136.249 48.965-185.214-83.027-68.125-189.472-104.316-295.917-104.316s-212.89 38.32-295.917 104.316c6.387 48.965 17.031 138.378 48.965 185.214v0zM772.79 280.881v0c-10.644 12.773-27.676 25.547-53.222 36.191-87.285 31.933-110.703 57.48-110.703 57.48l2.129 2.129c21.289 27.676 36.191 59.609 42.578 89.414v2.129c6.387 8.516 10.644 17.031 10.644 27.676 6.387 25.547 6.387 42.578 0 55.351v4.258c8.516 31.933 14.902 93.672-21.289 136.249-6.387 6.387-29.805 29.805-72.383 44.707-44.707 17.031-85.156 23.418-123.476 12.773-12.773-4.258-76.64-31.933-95.8-95.8-4.258-8.516-10.644-36.191-2.129-93.672v-4.258c-8.516-12.773-10.644-31.933-2.129-57.48 2.129-12.773 6.387-21.289 10.644-27.676v-2.129c6.387-29.805 19.16-61.738 40.449-87.285l2.129-2.129c0 0-21.289-34.062-112.832-59.609-36.191-12.773-42.578-23.418-51.094-36.191-31.933-46.836-44.707-123.476-51.094-180.956-95.8 89.414-151.152 215.019-151.152 347.010 0 259.726 210.761 470.486 470.486 470.486s470.486-212.89 470.486-470.486c0-131.992-55.351-257.597-151.152-347.010-8.516 57.48-21.289 134.121-51.094 178.827v0z" />
<glyph unicode="&#xe901;" glyph-name="activity" d="M512-40.823c-271.802 0-490.93 219.128-490.93 488.823s219.128 490.93 490.93 490.93 490.93-219.128 490.93-490.93-221.235-488.823-490.93-488.823zM512 907.325c-252.84 0-459.325-206.486-459.325-459.325s206.486-457.218 459.325-457.218 457.218 204.379 457.218 457.218-204.379 459.325-457.218 459.325zM512 119.309c-181.202 0-328.691 147.49-328.691 328.691s147.49 328.691 328.691 328.691c181.202 0 328.691-147.49 328.691-328.691s-147.49-328.691-328.691-328.691zM512 745.086c-164.346 0-297.086-132.741-297.086-297.086s132.741-297.086 297.086-297.086c164.346 0 297.086 132.741 297.086 297.086s-132.741 297.086-297.086 297.086zM640.527 448c0-70.983-57.543-128.527-128.527-128.527s-128.527 57.543-128.527 128.527c0 70.983 57.543 128.527 128.527 128.527s128.527-57.543 128.527-128.527z" />
<glyph unicode="&#xe902;" glyph-name="documents" horiz-adv-x="837" d="M738.185-39.325h-639.486c-41.124 0-74.024 32.9-74.024 74.024v826.602c0 41.124 32.9 74.024 74.024 74.024h464.707c8.225 0 14.394-6.169 14.394-14.394s-6.169-14.394-14.394-14.394h-464.707c-24.675 0-43.181-20.562-43.181-43.181v-828.659c0-24.675 20.562-43.181 43.181-43.181h639.486c24.675 0 43.181 20.562 43.181 43.181v645.655c0 8.225 6.169 14.394 14.394 14.394s14.394-6.169 14.394-14.394v-645.655c2.056-41.124-30.843-74.024-71.968-74.024v0zM795.759 665.96h-232.353c-8.225 0-14.394 6.169-14.394 14.394v232.353c0 8.225 6.169 14.394 14.394 14.394s14.394-6.169 14.394-14.394v-217.96h217.96c8.225 0 14.394-6.169 14.394-14.394 2.056-8.225-6.169-14.394-14.394-14.394v0zM795.759 665.96c-4.112 0-8.225 2.056-10.281 4.112l-232.353 238.522c-6.169 6.169-6.169 14.394 0 20.562s14.394 6.169 20.562 0l234.41-240.578c6.169-6.169 6.169-14.394 0-20.562-4.112-2.056-8.225-2.056-12.337-2.056v0zM242.635 114.892c-6.169 0-10.281 2.056-12.337 4.112-18.506 10.281-14.394 37.012-10.281 51.406 8.225 26.731 20.562 32.9 30.843 32.9v-34.956l45.237 41.124c8.225 6.169 18.506 8.225 28.787 6.169 8.225-2.056 14.394-10.281 16.45-18.506l2.056-12.337 59.631 51.406c8.225 6.169 20.562 8.225 30.843 2.056 8.225-6.169 12.337-16.45 8.225-24.675-4.112-14.394-4.112-24.675 0-32.9 4.112-6.169 8.225-8.225 10.281-10.281 20.562 10.281 90.474 47.293 152.161 80.193l20.562-37.012c-156.273-84.305-162.442-86.361-166.554-86.361-10.281-2.056-30.843 6.169-43.181 22.618-6.169 6.169-12.337 16.45-14.394 30.843l-53.462-45.237c-6.169-6.169-14.394-6.169-22.618-4.112l-10.281 4.112-4.112 12.337-4.112 16.45-41.124-39.068c-8.225-8.225-16.45-10.281-22.618-10.281zM460.594 168.353v0 0z" />
<glyph unicode="&#xe903;" glyph-name="invoices" horiz-adv-x="1269" d="M1190.796 457.501h-50.672c-12.668 71.786-48.561 141.46-103.456 194.243 19.002 76.008 59.118 122.458 61.229 122.458 2.111 2.111 4.223 6.334 2.111 10.557s-4.223 6.334-8.445 6.334c-16.891 4.223-33.781 6.334-50.672 6.334-69.674 0-122.458-33.781-156.239-65.452-29.559 8.445-59.118 10.557-88.676 10.557h-23.225c-2.111-4.223-6.334-10.557-8.445-21.113h33.781c31.67 0 61.229-4.223 88.676-10.557 4.223 0 8.445 0 10.557 2.111 29.559 27.447 78.12 61.229 145.682 61.229 8.445 0 19.002 0 27.447-2.111-14.779-21.113-42.227-63.34-54.895-124.569 0-4.223 0-8.445 4.223-10.557 54.895-50.672 92.899-120.346 103.456-194.243 0-6.334 6.334-8.445 10.557-8.445h61.229c21.113 0 42.227-27.447 42.227-59.118v-61.229c0-31.67-19.002-59.118-42.227-59.118h-76.008c-4.223 0-6.334 2.111-10.557 2.111-6.334 2.111-10.557 0-12.668-4.223-29.559-61.229-78.12-114.012-137.237-147.794-4.223-2.111-4.223-4.223-4.223-8.445v-133.014h-147.794v90.788c0 6.334-2.111 8.445-8.445 8.445h-308.256c-2.111 0-4.223 0-6.334 0s-4.223 0-6.334-2.111c-2.111-2.111-2.111-4.223-2.111-6.334v-90.788h-141.46v137.237c0 4.223-2.111 8.445-6.334 8.445-88.676 50.672-145.682 137.237-160.462 238.581 0 2.111 0 4.223-2.111 6.334 0 2.111 0 6.334-2.111 8.445 0 2.111 0 6.334 0 8.445 0 0 0 0 0 0 0 12.668-2.111 23.225 0 35.893 0 0 0 2.111 0 2.111 8.445 173.13 154.128 310.367 327.258 310.367h2.111c-4.223 10.557-6.334 14.779-8.445 23.225-175.241-4.223-318.812-135.126-339.926-308.256 0 0 0 2.111-2.111 2.111-6.334 10.557-12.668 21.113-21.113 25.336-10.557 8.445-23.225 12.668-38.004 10.557-12.668 0-23.225-6.334-33.781-16.891-8.445 8.445-14.779 14.779-16.891 14.779-4.223 4.223-12.668 4.223-16.891-2.111-4.223-4.223-4.223-12.668 2.111-16.891 0 0 8.445-6.334 16.891-14.779-2.111-4.223-4.223-6.334-4.223-10.557-8.445-23.225-10.557-52.784 4.223-69.674 4.223-4.223 10.557-10.557 23.225-10.557 4.223 0 8.445 0 14.779 2.111 16.891 6.334 23.225 16.891 25.336 25.336 4.223 16.891-6.334 38.004-31.67 63.34 0 0-2.111 2.111-2.111 2.111 6.334 10.557 12.668 14.779 19.002 14.779 16.891 2.111 29.559-6.334 38.004-25.336 8.445-14.779 10.557-29.559 10.557-31.67 0 0 0-2.111 0-2.111s2.111-6.334 6.334-10.557c0-4.223 0-8.445 0-10.557 0 0 0 0 0 0 0-2.111 0-6.334 0-8.445 0-4.223 0-6.334 2.111-10.557 0-2.111 0-4.223 2.111-6.334 14.779-105.567 76.008-196.355 164.685-251.249v-135.126c0-8.445 8.445-14.779 19.002-14.779h147.794c10.557 0 23.225 4.223 23.225 14.779v84.454h285.031v-84.454c0-8.445 8.445-14.779 19.002-14.779h147.794c10.557 0 23.225 6.334 23.225 14.779v128.792c59.118 35.893 107.678 84.454 137.237 145.682 2.111 0 4.223-2.111 6.334-2.111h76.008c35.893 0 65.452 38.004 65.452 80.231v61.229c0 46.449-29.559 82.342-65.452 82.342zM73.897 381.493c0-2.111 0-4.223-10.557-8.445s-14.779 0-14.779 2.111c-6.334 6.334-6.334 25.336 0 44.338 0 0 0 2.111 0 2.111 25.336-25.336 25.336-35.893 25.336-40.115zM627.068 767.868c-2.111 0-2.111 0-4.223 0-10.557 0-21.113 4.223-25.336 6.334l-6.334 4.223-8.445-29.559 2.111-2.111c6.334-4.223 14.779-6.334 25.336-8.445v-16.891h27.447v19.002c16.891 4.223 29.559 19.002 29.559 35.893s-10.557 29.559-31.67 35.893c-4.223 2.111-6.334 2.111-8.445 4.223-4.223 2.111-8.445 4.223-8.445 6.334s2.111 4.223 6.334 4.223c0 0 2.111 0 2.111 0 10.557 0 16.891-2.111 21.113-4.223 0 0 0 0 2.111 0l6.334-2.111 8.445 29.559-4.223 2.111c-6.334 2.111-12.668 4.223-21.113 6.334v10.557h-27.447v-16.891c-16.891-4.223-27.447-16.891-27.447-33.781 0-21.113 19.002-29.559 33.781-35.893 2.111 0 4.223-2.111 6.334-2.111 8.445-4.223 8.445-6.334 8.445-8.445s-4.223-4.223-6.334-4.223zM629.179 791.093c-2.111 0-4.223 2.111-6.334 2.111-19.002 6.334-27.447 12.668-27.447 25.336s8.445 21.113 23.225 25.336h4.223v14.779h6.334v-14.779h6.334c6.334 0 12.668-2.111 19.002-4.223l-2.111-8.445c-4.223 2.111-10.557 4.223-21.113 4.223-2.111 0-2.111 0-4.223 0-10.557-2.111-14.779-8.445-14.779-14.779 0-8.445 6.334-12.668 14.779-14.779 2.111-2.111 6.334-2.111 10.557-4.223 21.113-6.334 25.336-14.779 25.336-25.336 0-12.668-8.445-23.225-25.336-25.336h-4.223v-16.891h-6.334v14.779h-4.223c-8.445 0-16.891 2.111-23.225 4.223l2.111 8.445c6.334-2.111 14.779-4.223 23.225-4.223 2.111 0 4.223 0 6.334 0 10.557 2.111 16.891 6.334 16.891 14.779-4.223 10.557-12.668 14.779-19.002 19.002zM1002.887 461.724c27.447 0 50.672 23.225 50.672 50.672 0 23.225-14.779 42.227-35.893 48.561-4.223 2.111-10.557 2.111-14.779 2.111-12.668 0-25.336-4.223-33.781-12.668-10.557-10.557-16.891-23.225-16.891-38.004-2.111-27.447 21.113-50.672 50.672-50.672zM983.885 535.621c6.334 4.223 12.668 6.334 19.002 6.334 2.111 0 6.334 0 8.445-2.111 12.668-4.223 21.113-14.779 21.113-27.447 0-16.891-12.668-29.559-29.559-29.559s-29.559 12.668-29.559 29.559c0 10.557 4.223 16.891 10.557 23.225zM776.973 829.097c0 4.223-2.111 10.557-4.223 14.779-6.334 21.113-19.002 42.227-33.781 59.118-29.559 31.67-69.674 48.561-111.901 48.561-84.454 0-154.128-69.674-154.128-154.128 0-16.891 2.111-33.781 8.445-50.672 2.111-8.445 6.334-14.779 8.445-21.113 25.336-48.561 76.008-82.342 135.126-82.342v0c50.672 0 97.122 25.336 126.68 67.563 4.223 4.223 6.334 10.557 8.445 14.779 4.223 6.334 6.334 14.779 8.445 21.113 2.111 4.223 2.111 8.445 4.223 12.668s2.111 8.445 2.111 12.668c6.334 8.445 6.334 14.779 6.334 23.225 0 10.557-2.111 21.113-4.223 33.781zM629.179 660.19v0c-76.008 0-137.237 61.229-137.237 135.126 0 76.008 61.229 135.126 135.126 135.126 38.004 0 71.786-14.779 99.233-42.227 14.779-14.779 25.336-31.67 29.559-50.672 2.111-4.223 4.223-8.445 4.223-12.668 2.111-10.557 2.111-19.002 2.111-29.559 0-6.334 0-14.779-2.111-21.113 0-4.223-2.111-8.445-2.111-12.668-4.223-16.891-8.445-31.67-19.002-44.338-23.225-35.893-67.563-57.006-109.79-57.006z" />
<glyph unicode="&#xe904;" glyph-name="mail" horiz-adv-x="1440" d="M1143.978 181.537c-5.58 0-11.161 2.79-13.951 5.58l-253.907 239.956c-8.371 8.371-8.371 22.322 0 30.692s22.322 8.371 30.692 0l253.907-239.956c8.371-8.371 8.371-22.322 0-30.692-5.58-2.79-11.161-5.58-16.741-5.58v0zM295.76 181.537c-5.58 0-11.161 2.79-16.741 5.58-8.371 8.371-8.371 22.322 0 30.692l253.907 239.956c8.371 8.371 22.322 8.371 30.692 0s8.371-22.322 0-30.692l-253.907-239.956c-5.58-2.79-8.371-5.58-13.951-5.58v0zM1294.649-38.888h-1149.559c-61.384 0-111.608 50.223-111.608 111.608v753.351c0 61.384 50.223 111.608 111.608 111.608h1149.559c61.384 0 111.608-50.223 111.608-111.608v-753.351c0-61.384-50.223-111.608-111.608-111.608v0zM145.090 893.035c-36.272 0-66.965-30.692-66.965-66.965v-753.351c0-36.272 30.692-66.965 66.965-66.965h1149.559c36.272 0 66.965 30.692 66.965 66.965v753.351c0 36.272-30.692 66.965-66.965 66.965h-1149.559zM719.869 337.787c-30.692 0-58.594 8.371-80.916 27.902l-569.199 496.654c-8.371 8.371-8.371 22.322-2.79 30.692 8.371 8.371 22.322 11.161 33.482 2.79l569.199-496.654c27.902-25.112 75.335-25.112 103.237 0l566.409 496.654c8.371 8.371 22.322 8.371 30.692-2.79 8.371-8.371 8.371-22.322-2.79-30.692l-566.409-496.654c-22.322-19.531-53.014-27.902-80.916-27.902v0z" />
<glyph unicode="&#xe905;" glyph-name="projects" horiz-adv-x="950" d="M868.082 951.572h-804.872c-25.284 0-46.354-21.070-46.354-46.354v-906.008c0-25.284 21.070-46.354 46.354-46.354h806.979c25.284 0 46.354 21.070 46.354 46.354v906.008c0 25.284-21.070 46.354-48.461 46.354v0zM63.21 917.86h806.979c8.428 0 14.749-6.321 14.749-14.749v-436.148h-836.477v438.255c0 6.321 6.321 12.642 14.749 12.642v0zM868.082-15.539h-804.872c-8.428 0-14.749 6.321-14.749 14.749v436.148h834.37v-436.148c0-8.428-6.321-14.749-14.749-14.749v0zM372.938 652.379h183.309c31.605 0 58.996 25.284 58.996 58.996v25.284c0 8.428-8.428 16.856-16.856 16.856s-16.856-8.428-16.856-16.856v-25.284c0-14.749-10.535-25.284-25.284-25.284h-183.309c-14.749 0-25.284 10.535-25.284 25.284v25.284c0 8.428-8.428 16.856-16.856 16.856s-16.856-8.428-16.856-16.856v-25.284c2.107-33.712 27.391-58.996 58.996-58.996v0zM598.387 268.905c-8.428 0-16.856-8.428-16.856-16.856v-25.284c0-14.749-10.535-25.284-25.284-25.284h-183.309c-14.749 0-25.284 10.535-25.284 25.284v25.284c0 8.428-8.428 16.856-16.856 16.856s-16.856-8.428-16.856-16.856v-25.284c0-31.605 25.284-58.996 58.996-58.996h183.309c31.605 0 58.996 25.284 58.996 58.996v25.284c0 8.428-6.321 16.856-16.856 16.856v0z" />
<glyph unicode="&#xe906;" glyph-name="tasks" horiz-adv-x="887" d="M139.32 551.329c-4.644 9.288-16.254 11.61-23.22 6.966-9.288-4.644-11.61-16.254-6.966-23.22l262.385-482.975c2.322-4.644 9.288-9.288 16.254-9.288s11.61 4.644 16.254 9.288l466.721 868.426c4.644 9.288 2.322 18.576-6.966 23.22s-18.576 2.322-23.22-6.966l-452.789-840.562-248.454 455.111zM743.039 511.855c-6.966 0-11.61-4.644-11.61-11.61v-357.587c0-92.88-74.304-167.184-167.184-167.184h-357.587c-92.88 0-167.184 74.304-167.184 167.184v357.587c0 92.88 74.304 167.184 167.184 167.184h357.587c6.966 0 11.61 4.644 11.61 11.61s-4.644 11.61-11.61 11.61h-357.587c-104.49 0-192.726-85.914-192.726-192.726v-357.587c0-106.812 85.914-192.726 192.726-192.726h357.587c106.812 0 192.726 85.914 192.726 192.726v359.909c0 6.966-6.966 11.61-13.932 11.61v0z" />
</font></defs></svg>